<?xml version="1.0" encoding="UTF-8" standalone="no"?>
<!-- Created with Inkscape (http://www.inkscape.org/) -->

<svg
   xmlns:dc="http://purl.org/dc/elements/1.1/"
   xmlns:cc="http://creativecommons.org/ns#"
   xmlns:rdf="http://www.w3.org/1999/02/22-rdf-syntax-ns#"
   xmlns:svg="http://www.w3.org/2000/svg"
   xmlns="http://www.w3.org/2000/svg"
   xmlns:xlink="http://www.w3.org/1999/xlink"
   xmlns:sodipodi="http://sodipodi.sourceforge.net/DTD/sodipodi-0.dtd"
   xmlns:inkscape="http://www.inkscape.org/namespaces/inkscape"
   width="754.72437"
   height="1073.6221"
   id="svg2"
   version="1.1"
   inkscape:version="0.48+devel r"
   sodipodi:docname="montage2.svg"
   inkscape:export-filename="/home/rlafuente/work/lgmag/libregraphicsmag/vol1issue1/showcase/john_lemasney/montage3.png"
   inkscape:export-xdpi="300"
   inkscape:export-ydpi="300">
  <defs
     id="defs4" />
  <sodipodi:namedview
     id="base"
     pagecolor="#ffffff"
     bordercolor="#666666"
     borderopacity="1.0"
     inkscape:pageopacity="0.0"
     inkscape:pageshadow="2"
     inkscape:zoom="0.35"
     inkscape:cx="641.1133"
     inkscape:cy="600.34168"
     inkscape:document-units="px"
     inkscape:current-layer="layer1"
     showgrid="false"
     units="mm"
     inkscape:window-width="1278"
     inkscape:window-height="779"
     inkscape:window-x="0"
     inkscape:window-y="19"
     inkscape:window-maximized="0" />
  <metadata
     id="metadata7">
    <rdf:RDF>
      <cc:Work
         rdf:about="">
        <dc:format>image/svg+xml</dc:format>
        <dc:type
           rdf:resource="http://purl.org/dc/dcmitype/StillImage" />
        <dc:title></dc:title>
      </cc:Work>
    </rdf:RDF>
  </metadata>
  <g
     inkscape:label="Layer 1"
     inkscape:groupmode="layer"
     id="layer1"
     transform="translate(0,21.259836)">
    <image
       y="773.90033"
       x="-4.4999824"
       id="image4099"
       xlink:href="file:///home/rlafuente/work/lgmag/libregraphicsmag/vol1issue1/showcase/john_lemasney/from-blog/20100912soundwaves.png"
       height="285.6048"
       width="462.10855" />
    <image
       y="536.64801"
       x="-1.9285583"
       id="image4877"
       xlink:href="file:///home/rlafuente/work/lgmag/libregraphicsmag/vol1issue1/showcase/john_lemasney/from-blog/20100926seal.png"
       height="280"
       width="453.04001" />
    <image
       y="545.00513"
       x="444.28571"
       id="image4939"
       xlink:href="file:///home/rlafuente/work/lgmag/libregraphicsmag/vol1issue1/showcase/john_lemasney/from-blog/20101101doyourbest.png"
       height="506.14285"
       width="312.82007" />
    <image
       y="-21.259836"
       x="295.5"
       id="image4545"
       xlink:href="file:///home/rlafuente/work/lgmag/libregraphicsmag/vol1issue1/showcase/john_lemasney/from-blog/20101030manwheel.png"
       height="327.83682"
       width="530.44" />
    <image
       y="290.20877"
       x="338.35718"
       id="image4703"
       xlink:href="file:///home/rlafuente/work/lgmag/libregraphicsmag/vol1issue1/showcase/john_lemasney/from-blog/20101026rustybeetle.png"
       height="257.14285"
       width="416.05713" />
    <image
       y="-21.259836"
       x="0"
       id="image3793"
       xlink:href="file:///home/rlafuente/work/lgmag/libregraphicsmag/vol1issue1/showcase/john_lemasney/20100811textairplane.png"
       height="568.61145"
       width="351.42856" />
  </g>
</svg>
